module mimo

go 1.17

require (
	github.com/dgrijalva/jwt-go v3.2.0+incompatible
	github.com/go-playground/locales v0.14.1
	github.com/go-playground/universal-translator v0.18.1
	github.com/joho/godotenv v1.5.1
	github.com/labstack/echo v3.3.10+incompatible
	github.com/lib/pq v1.10.9
	golang.org/x/crypto v0.14.0
	gopkg.in/go-playground/validator.v9 v9.31.0
)

require (
	github.com/labstack/gommon v0.4.0 // indirect
	github.com/leodido/go-urn v1.2.4 // indirect
	github.com/mattn/go-colorable v0.1.13 // indirect
	github.com/mattn/go-isatty v0.0.19 // indirect
	github.com/stretchr/testify v1.8.4 // indirect
	github.com/valyala/bytebufferpool v1.0.0 // indirect
	github.com/valyala/fasttemplate v1.2.2 // indirect
	golang.org/x/net v0.17.0 // indirect
	golang.org/x/sys v0.13.0 // indirect
	golang.org/x/text v0.13.0 // indirect
	gopkg.in/go-playground/assert.v1 v1.2.1 // indirect
)
